{
  "error": {
      "root_cause": [
          {
              "type": "json_e_o_f_exception",
              "reason": "Unexpected end-of-input in VALUE_STRING\n at [Source: [B@2093b373; line: 1, column: 185]"
          }
      ],
      "type": "json_e_o_f_exception",
      "reason": "Unexpected end-of-input in VALUE_STRING\n at [Source: [B@2093b373; line: 1, column: 185]"
  },
  "status": 500
}